Special Data Types
…
```r
penguins %>%
  mutate(
    body_mass = case_when(
      body_mass_g < 4050 ~ "Small",
      body_mass_g > 4050 & body_mass_g < 5000 ~ "Medium",
      TRUE ~ "Chonker"
    )
  ) %>%
    select(body_mass, body_mass_g)
```

```
## # A tibble: 344 x 2
##    body_mass body_mass_g
##    <chr>           <int>
##  1 Small            3750
##  2 Small            3800
##  3 Small            3250
##  4 Chonker            NA
##  5 Small            3450
##  6 Small            3650
##  7 Small            3625
##  8 Medium           4675
##  9 Small            3475
## 10 Medium           4250
## # ... with 334 more rows
```
…
