Special Data Types
…
```r
penguins %>%
  mutate(
    body_mass = case_when(
      body_mass_g < 4050 ~ "Small",
      body_mass_g > 4050 & body_mass_g < 5000 ~ "Medium",
      TRUE ~ "Chonker"
    )
  ) %>%
    select(body_mass, body_mass_g)
```

```
## # A tibble: 344 x 2
##    body_mass body_mass_g
##    <chr>           <int>
##  1 Small            3750
##  2 Small            3800
##  3 Small            3250
##  4 Chonker            NA
##  5 Small            3450
##  6 Small            3650
##  7 Small            3625
##  8 Medium           4675
##  9 Small            3475
## 10 Medium           4250
## # ... with 334 more rows
```
…
```r
colleges <- 
  colleges %>%
  mutate(
    CONTROL = factor(CONTROL),
    Type = fct_recode(CONTROL, Public = "1", Private = "2")
  )
  
colleges %>% select(CONTROL, Type)
```

```
## # A tibble: 1,310 x 2
##    CONTROL Type   
##    <fct>   <fct>  
##  1 1       Public 
##  2 1       Public 
##  3 1       Public 
##  4 1       Public 
##  5 1       Public 
##  6 1       Public 
##  7 1       Public 
##  8 2       Private
##  9 2       Private
## 10 2       Private
## # ... with 1,300 more rows
```
…
---
# Solutions

---
# Solutions

```r
colleges %>%
  mutate(
    name_length = str_length(INSTNM)
  )
```

```
## # A tibble: 1,310 x 14
##    INSTNM CITY  STABBR ZIP   CONTROL ADM_RATE SAT_AVG TUITIONFEE_IN
##    <chr>  <chr> <chr>  <chr> <fct>      <dbl>   <dbl>         <dbl>
##  1 Alaba~ Norm~ AL     35762 1          0.903     929          9857
##  2 Unive~ Birm~ AL     3529~ 1          0.918    1195          8328
##  3 Unive~ Hunt~ AL     35899 1          0.812    1322         10280
##  4 Alaba~ Mont~ AL     3610~ 1          0.979     935         11068
##  5 The U~ Tusc~ AL     3548~ 1          0.533    1278         10780
##  6 Aubur~ Mont~ AL     3611~ 1          0.825    1083          8020
##  7 Aubur~ Aubu~ AL     36849 1          0.839    1282         10968
##  8 Birmi~ Birm~ AL     35254 2          0.619    1231         35804
##  9 Faulk~ Mont~ AL     3610~ 2          0.510    1031         20970
## 10 Hunti~ Mont~ AL     3610~ 2          0.560    1085         26400
## # ... with 1,300 more rows, and 6 more variables: TUITIONFEE_OUT <dbl>,
## #   UGDS <dbl>, REGION <dbl>, TUITION_DIFF <dbl>, Type <fct>, name_length <int>
```
…
