Basics of Data Analysis
…
```
## # A tibble: 77 x 16
##    name  mfr   type  calories protein   fat sodium fiber carbo sugars
##    <chr> <chr> <chr>    <dbl>   <dbl> <dbl>  <dbl> <dbl> <dbl>  <dbl>
##  1 100%~ N     C           70       4     1    130  10     5        6
##  2 100%~ Q     C          120       3     5     15   2     8        8
##  3 All-~ K     C           70       4     1    260   9     7        5
##  4 All-~ K     C           50       4     0    140  14     8        0
##  5 Almo~ R     C          110       2     2    200   1    14        8
##  6 Appl~ G     C          110       2     2    180   1.5  10.5     10
##  7 Appl~ K     C          110       2     0    125   1    11       14
##  8 Basi~ G     C          130       3     2    210   2    18        8
##  9 Bran~ R     C           90       2     1    200   4    15        6
## 10 Bran~ P     C           90       3     0    210   5    13        5
## # ... with 67 more rows, and 6 more variables: potass <dbl>,
## #   vitamins <dbl>, shelf <dbl>, weight <dbl>, cups <dbl>, rating <dbl>
```
…
